[gd_scene load_steps=4 format=2]

[ext_resource path="res://Scripts/Tail.gd" type="Script" id=1]
[ext_resource path="res://Assets/SnakeBody.png" type="Texture" id=2]

[sub_resource type="RectangleShape2D" id=1]

[node name="Tail" type="Area2D"]
script = ExtResource( 1 )

[node name="Sprite" type="Sprite" parent="."]
position = Vector2( 0, -0.37735 )
texture = ExtResource( 2 )

[node name="CollisionShape2D" type="CollisionShape2D" parent="."]
shape = SubResource( 1 )
