; Engine configuration file.
; It's best edited using the editor UI and not directly,
; since the parameters that go here are not all obvious.
;
; Format:
;   [section] ; section goes between []
;   param=value ; assign values to parameters

config_version=4

_global_script_classes=[  ]
_global_script_class_icons={

}

[application]

config/name="SnakeGame"
run/main_scene="res://Scenes/Menu.tscn"
boot_splash/image="res://Assets/boot.png"
boot_splash/bg_color=Color( 0, 0.678431, 0.0117647, 1 )
config/icon="res://Assets/Snake.png"

[autoload]

Firebase="*res://Scripts/Firebase.gd"
Global="*res://Scripts/Global.gd"

[display]

window/handheld/orientation="sensor_landscape"
window/stretch/mode="viewport"
window/stretch/aspect="keep_height"

[rendering]

quality/driver/driver_name="GLES2"
vram_compression/import_etc=true
vram_compression/import_etc2=false
environment/default_environment="res://default_env.tres"
